{
  "name": "gsm-maps-proxy-e2e",
  "$schema": "../../node_modules/nx/schemas/project-schema.json",
  "implicitDependencies": ["gsm-maps-proxy"],
  "projectType": "application",
  "targets": {
    "e2e": {
      "executor": "@nx/jest:jest",
      "outputs": ["{workspaceRoot}/coverage/{e2eProjectRoot}"],
      "options": {
        "jestConfig": "apps/gsm-maps-proxy-e2e/jest.config.ts",
        "passWithNoTests": true
      }
    },
    "lint": {
      "executor": "@nx/eslint:lint",
      "outputs": ["{options.outputFile}"],
      "options": {
        "lintFilePatterns": ["apps/gsm-maps-proxy-e2e/**/*.{js,ts}"]
      }
    }
  }
}
